<?xml version="1.0" encoding="iso-8859-1"?>
<!-- Generator: Adobe Illustrator 22.1.0, SVG Export Plug-In . SVG Version: 6.00 Build 0)  -->
<svg version="1.1" id="Warstwa_1" xmlns="http://www.w3.org/2000/svg" xmlns:xlink="http://www.w3.org/1999/xlink" x="0px" y="0px"
	 viewBox="0 0 328.8 387.84" style="enable-background:new 0 0 328.8 387.84;" xml:space="preserve">
<g>
	<g>
		<defs>
			<rect id="SVGID_1_" width="328.8" height="387.84"/>
		</defs>
		<clipPath id="SVGID_2_">
			<use xlink:href="#SVGID_1_"  style="overflow:visible;"/>
		</clipPath>
		<path style="clip-path:url(#SVGID_2_);" d="M162.902,208.72h2.559c23.441-0.398,42.402-8.64,56.402-24.398
			c30.797-34.723,25.68-94.242,25.117-99.922c-2-42.641-22.16-63.039-38.796-72.559C195.781,4.72,181.301,0.88,165.141,0.56h-1.36
			c-8.879,0-26.32,1.441-43.039,10.961C103.941,21.04,83.461,41.439,81.461,84.4c-0.559,5.68-5.68,65.199,25.121,99.922
			C120.5,200.08,139.461,208.322,162.902,208.72L162.902,208.72z M102.82,86.4c0-0.238,0.082-0.481,0.082-0.641
			c2.641-57.359,43.36-63.519,60.801-63.519h0.957c21.602,0.48,58.32,9.281,60.801,63.519c0,0.242,0,0.481,0.082,0.641
			c0.078,0.558,5.68,54.961-19.762,83.601c-10.078,11.36-23.519,16.957-41.199,17.118h-0.801
			c-17.597-0.161-31.121-5.758-41.121-17.118C97.301,141.521,102.742,86.88,102.82,86.4L102.82,86.4z M102.82,86.4"/>
		<path style="clip-path:url(#SVGID_2_);" d="M328.582,307.439v-0.238c0-0.641-0.082-1.282-0.082-2
			c-0.477-15.84-1.52-52.879-36.238-64.719c-0.239-0.082-0.559-0.16-0.801-0.242c-36.078-9.2-66.078-30-66.399-30.239
			c-4.878-3.441-11.601-2.242-15.039,2.637c-3.441,4.883-2.242,11.602,2.637,15.043c1.363,0.957,33.203,23.117,73.043,33.359
			c18.637,6.641,20.719,26.559,21.277,44.801c0,0.719,0,1.36,0.082,2c0.079,7.199-0.402,18.321-1.679,24.719
			c-12.961,7.359-63.762,32.801-141.043,32.801c-76.957,0-128.078-25.52-141.117-32.879c-1.282-6.402-1.84-17.524-1.68-24.723
			c0-0.64,0.078-1.277,0.078-2c0.563-18.238,2.641-38.16,21.281-44.801c39.84-10.238,71.68-32.476,73.039-33.359
			c4.879-3.437,6.082-10.16,2.641-15.039c-3.441-4.879-10.16-6.078-15.039-2.641c-0.32,0.243-30.16,21.039-66.402,30.243
			c-0.321,0.078-0.559,0.16-0.801,0.238C1.621,252.322,0.582,289.361,0.102,305.119c0,0.722,0,1.363-0.079,2v0.242
			c-0.082,4.16-0.16,25.519,4.079,36.238c0.8,2.082,2.238,3.84,4.16,5.039c2.398,1.602,59.922,38.242,156.16,38.242
			s153.762-36.718,156.16-38.242c1.84-1.199,3.359-2.957,4.16-5.039C328.742,332.958,328.66,311.599,328.582,307.439
			L328.582,307.439z M328.582,307.439"/>
	</g>
</g>
</svg>
