<?xml version="1.0" encoding="utf-8"?>
<!-- Generator: Adobe Illustrator 22.0.0, SVG Export Plug-In . SVG Version: 6.00 Build 0)  -->
<svg version="1.1" id="Warstwa_1" xmlns="http://www.w3.org/2000/svg" xmlns:xlink="http://www.w3.org/1999/xlink" x="0px" y="0px"
	 viewBox="0 0 42.5 36.9" style="enable-background:new 0 0 42.5 36.9;" xml:space="preserve">
<g>
	<path d="M40,0.5H2.5c-1.2,0-2.2,1-2.2,2.2v31.5c0,1.2,1,2.2,2.2,2.2H40c1.2,0,2.2-1,2.2-2.2V2.7C42.2,1.5,41.2,0.5,40,0.5L40,0.5z
		 M10.7,1.9h27.1v1.6H10.7V1.9z M7.7,1.9h1.6v1.6H7.7V1.9z M4.7,1.9h1.6v1.6H4.7V1.9z M1.7,2.7c0-0.4,0.4-0.8,0.8-0.8h0.8v1.6H1.7
		V2.7z M40.8,34.2c0,0.4-0.4,0.8-0.8,0.8H2.5c-0.4,0-0.8-0.4-0.8-0.8V4.9h39.1V34.2z M40.8,3.5h-1.6V1.9H40c0.4,0,0.8,0.4,0.8,0.8
		V3.5z M40.8,3.5"/>
	<path d="M38.5,6.5H4c-0.4,0-0.7,0.3-0.7,0.7c0,0.4,0.3,0.7,0.7,0.7h34.5c0.4,0,0.7-0.3,0.7-0.7C39.2,6.8,38.9,6.5,38.5,6.5
		L38.5,6.5z M38.5,6.5"/>
	<path d="M18.5,25.7c0.1,0,0.2,0,0.3,0l9.5-1.2c1.1-0.1,1.9-1.1,1.9-2.2v-6.2c0-0.4-0.3-0.7-0.7-0.7H25c-0.4,0-0.7,0.3-0.7,0.7
		c0,0.4,0.3,0.7,0.7,0.7h3.8v5.5c0,0.4-0.3,0.7-0.7,0.8l-9.5,1.2c-0.4,0-0.7-0.2-0.8-0.5l-2.6-6.9H19c0.4,0,0.7-0.3,0.7-0.7
		c0-0.4-0.3-0.7-0.7-0.7h-4.4L14,13.9c-0.3-0.9-1.1-1.4-2.1-1.4h-1.2c-0.4,0-0.7,0.3-0.7,0.7c0,0.4,0.3,0.7,0.7,0.7H12
		c0.3,0,0.6,0.2,0.7,0.5l3.7,9.9c0.1,0.2,0.2,0.5,0.4,0.6l-1.1,1.8c-0.2,0-0.3-0.1-0.5-0.1c-1.2,0-2.2,1-2.2,2.2s1,2.2,2.2,2.2
		c1,0,1.8-0.6,2.1-1.5h8.6c0.3,0.9,1.1,1.5,2.1,1.5c1.2,0,2.2-1,2.2-2.2s-1-2.2-2.2-2.2c-1,0-1.8,0.6-2.1,1.5h-8.6
		c-0.1-0.3-0.2-0.5-0.4-0.7l1.1-1.8C18.2,25.7,18.3,25.7,18.5,25.7L18.5,25.7z M15.3,29.7c-0.4,0-0.8-0.4-0.8-0.8
		c0-0.4,0.4-0.8,0.8-0.8c0.4,0,0.8,0.4,0.8,0.8C16.1,29.4,15.7,29.7,15.3,29.7L15.3,29.7z M28,28.1c0.4,0,0.8,0.4,0.8,0.8
		c0,0.4-0.4,0.8-0.8,0.8c-0.4,0-0.8-0.4-0.8-0.8C27.2,28.5,27.6,28.1,28,28.1L28,28.1z M28,28.1"/>
	<path d="M24.8,18.7c-0.3-0.3-0.7-0.3-1,0l-1,1v-8.1c0-0.4-0.3-0.7-0.7-0.7c-0.4,0-0.7,0.3-0.7,0.7v8.1l-1-1c-0.3-0.3-0.7-0.3-1,0
		c-0.3,0.3-0.3,0.7,0,1l2.2,2.2c0.1,0.1,0.3,0.2,0.5,0.2c0.2,0,0.4-0.1,0.5-0.2l2.2-2.2C25,19.4,25,19,24.8,18.7L24.8,18.7z
		 M24.8,18.7"/>
</g>
</svg>
